{
    "count": 914,
    "pageIndex": 1,
    "pageSize": 25,
    "pageCount": 37,
    "items": [
        {
            "$ref": "http://sports.core.api.espn.com/v2/sports/basketball/leagues/mens-college-basketball/franchises/1?lang=en&region=us"
        },
        {
            "$ref": "http://sports.core.api.espn.com/v2/sports/basketball/leagues/mens-college-basketball/franchises/2?lang=en&region=us"
        },
        {
            "$ref": "http://sports.core.api.espn.com/v2/sports/basketball/leagues/mens-college-basketball/franchises/3?lang=en&region=us"
        },
        {
            "$ref": "http://sports.core.api.espn.com/v2/sports/basketball/leagues/mens-college-basketball/franchises/5?lang=en&region=us"
        },
        {
            "$ref": "http://sports.core.api.espn.com/v2/sports/basketball/leagues/mens-college-basketball/franchises/6?lang=en&region=us"
        },
        {
            "$ref": "http://sports.core.api.espn.com/v2/sports/basketball/leagues/mens-college-basketball/franchises/8?lang=en&region=us"
        },
        {
            "$ref": "http://sports.core.api.espn.com/v2/sports/basketball/leagues/mens-college-basketball/franchises/9?lang=en&region=us"
        },
        {
            "$ref": "http://sports.core.api.espn.com/v2/sports/basketball/leagues/mens-college-basketball/franchises/11?lang=en&region=us"
        },
        {
            "$ref": "http://sports.core.api.espn.com/v2/sports/basketball/leagues/mens-college-basketball/franchises/12?lang=en&region=us"
        },
        {
            "$ref": "http://sports.core.api.espn.com/v2/sports/basketball/leagues/mens-college-basketball/franchises/13?lang=en&region=us"
        },
        {
            "$ref": "http://sports.core.api.espn.com/v2/sports/basketball/leagues/mens-college-basketball/franchises/16?lang=en&region=us"
        },
        {
            "$ref": "http://sports.core.api.espn.com/v2/sports/basketball/leagues/mens-college-basketball/franchises/18?lang=en&region=us"
        },
        {
            "$ref": "http://sports.core.api.espn.com/v2/sports/basketball/leagues/mens-college-basketball/franchises/21?lang=en&region=us"
        },
        {
            "$ref": "http://sports.core.api.espn.com/v2/sports/basketball/leagues/mens-college-basketball/franchises/22?lang=en&region=us"
        },
        {
            "$ref": "http://sports.core.api.espn.com/v2/sports/basketball/leagues/mens-college-basketball/franchises/23?lang=en&region=us"
        },
        {
            "$ref": "http://sports.core.api.espn.com/v2/sports/basketball/leagues/mens-college-basketball/franchises/24?lang=en&region=us"
        },
        {
            "$ref": "http://sports.core.api.espn.com/v2/sports/basketball/leagues/mens-college-basketball/franchises/25?lang=en&region=us"
        },
        {
            "$ref": "http://sports.core.api.espn.com/v2/sports/basketball/leagues/mens-college-basketball/franchises/26?lang=en&region=us"
        },
        {
            "$ref": "http://sports.core.api.espn.com/v2/sports/basketball/leagues/mens-college-basketball/franchises/27?lang=en&region=us"
        },
        {
            "$ref": "http://sports.core.api.espn.com/v2/sports/basketball/leagues/mens-college-basketball/franchises/28?lang=en&region=us"
        },
        {
            "$ref": "http://sports.core.api.espn.com/v2/sports/basketball/leagues/mens-college-basketball/franchises/29?lang=en&region=us"
        },
        {
            "$ref": "http://sports.core.api.espn.com/v2/sports/basketball/leagues/mens-college-basketball/franchises/30?lang=en&region=us"
        },
        {
            "$ref": "http://sports.core.api.espn.com/v2/sports/basketball/leagues/mens-college-basketball/franchises/33?lang=en&region=us"
        },
        {
            "$ref": "http://sports.core.api.espn.com/v2/sports/basketball/leagues/mens-college-basketball/franchises/35?lang=en&region=us"
        },
        {
            "$ref": "http://sports.core.api.espn.com/v2/sports/basketball/leagues/mens-college-basketball/franchises/36?lang=en&region=us"
        }
    ]
}