{
    "count": 932,
    "pageIndex": 1,
    "pageSize": 25,
    "pageCount": 38,
    "items": [
        {
            "$ref": "http://sports.core.api.espn.com/v2/sports/basketball/leagues/mens-college-basketball/seasons/2021/teams/1?lang=en&region=us"
        },
        {
            "$ref": "http://sports.core.api.espn.com/v2/sports/basketball/leagues/mens-college-basketball/seasons/2021/teams/2?lang=en&region=us"
        },
        {
            "$ref": "http://sports.core.api.espn.com/v2/sports/basketball/leagues/mens-college-basketball/seasons/2021/teams/5?lang=en&region=us"
        },
        {
            "$ref": "http://sports.core.api.espn.com/v2/sports/basketball/leagues/mens-college-basketball/seasons/2021/teams/6?lang=en&region=us"
        },
        {
            "$ref": "http://sports.core.api.espn.com/v2/sports/basketball/leagues/mens-college-basketball/seasons/2021/teams/8?lang=en&region=us"
        },
        {
            "$ref": "http://sports.core.api.espn.com/v2/sports/basketball/leagues/mens-college-basketball/seasons/2021/teams/9?lang=en&region=us"
        },
        {
            "$ref": "http://sports.core.api.espn.com/v2/sports/basketball/leagues/mens-college-basketball/seasons/2021/teams/11?lang=en&region=us"
        },
        {
            "$ref": "http://sports.core.api.espn.com/v2/sports/basketball/leagues/mens-college-basketball/seasons/2021/teams/12?lang=en&region=us"
        },
        {
            "$ref": "http://sports.core.api.espn.com/v2/sports/basketball/leagues/mens-college-basketball/seasons/2021/teams/13?lang=en&region=us"
        },
        {
            "$ref": "http://sports.core.api.espn.com/v2/sports/basketball/leagues/mens-college-basketball/seasons/2021/teams/16?lang=en&region=us"
        },
        {
            "$ref": "http://sports.core.api.espn.com/v2/sports/basketball/leagues/mens-college-basketball/seasons/2021/teams/18?lang=en&region=us"
        },
        {
            "$ref": "http://sports.core.api.espn.com/v2/sports/basketball/leagues/mens-college-basketball/seasons/2021/teams/21?lang=en&region=us"
        },
        {
            "$ref": "http://sports.core.api.espn.com/v2/sports/basketball/leagues/mens-college-basketball/seasons/2021/teams/22?lang=en&region=us"
        },
        {
            "$ref": "http://sports.core.api.espn.com/v2/sports/basketball/leagues/mens-college-basketball/seasons/2021/teams/23?lang=en&region=us"
        },
        {
            "$ref": "http://sports.core.api.espn.com/v2/sports/basketball/leagues/mens-college-basketball/seasons/2021/teams/24?lang=en&region=us"
        },
        {
            "$ref": "http://sports.core.api.espn.com/v2/sports/basketball/leagues/mens-college-basketball/seasons/2021/teams/25?lang=en&region=us"
        },
        {
            "$ref": "http://sports.core.api.espn.com/v2/sports/basketball/leagues/mens-college-basketball/seasons/2021/teams/26?lang=en&region=us"
        },
        {
            "$ref": "http://sports.core.api.espn.com/v2/sports/basketball/leagues/mens-college-basketball/seasons/2021/teams/27?lang=en&region=us"
        },
        {
            "$ref": "http://sports.core.api.espn.com/v2/sports/basketball/leagues/mens-college-basketball/seasons/2021/teams/28?lang=en&region=us"
        },
        {
            "$ref": "http://sports.core.api.espn.com/v2/sports/basketball/leagues/mens-college-basketball/seasons/2021/teams/29?lang=en&region=us"
        },
        {
            "$ref": "http://sports.core.api.espn.com/v2/sports/basketball/leagues/mens-college-basketball/seasons/2021/teams/30?lang=en&region=us"
        },
        {
            "$ref": "http://sports.core.api.espn.com/v2/sports/basketball/leagues/mens-college-basketball/seasons/2021/teams/33?lang=en&region=us"
        },
        {
            "$ref": "http://sports.core.api.espn.com/v2/sports/basketball/leagues/mens-college-basketball/seasons/2021/teams/35?lang=en&region=us"
        },
        {
            "$ref": "http://sports.core.api.espn.com/v2/sports/basketball/leagues/mens-college-basketball/seasons/2021/teams/36?lang=en&region=us"
        },
        {
            "$ref": "http://sports.core.api.espn.com/v2/sports/basketball/leagues/mens-college-basketball/seasons/2021/teams/37?lang=en&region=us"
        }
    ]
}