{
    "count": 29,
    "pageIndex": 1,
    "pageSize": 25,
    "pageCount": 2,
    "items": [
        {
            "$ref": "http://sports.core.api.espn.com/v2/sports/basketball/leagues/mens-college-basketball/events/401262492?lang=en&region=us"
        },
        {
            "$ref": "http://sports.core.api.espn.com/v2/sports/basketball/leagues/mens-college-basketball/events/401263444?lang=en&region=us"
        },
        {
            "$ref": "http://sports.core.api.espn.com/v2/sports/basketball/leagues/mens-college-basketball/events/401262150?lang=en&region=us"
        },
        {
            "$ref": "http://sports.core.api.espn.com/v2/sports/basketball/leagues/mens-college-basketball/events/401267730?lang=en&region=us"
        },
        {
            "$ref": "http://sports.core.api.espn.com/v2/sports/basketball/leagues/mens-college-basketball/events/401264455?lang=en&region=us"
        },
        {
            "$ref": "http://sports.core.api.espn.com/v2/sports/basketball/leagues/mens-college-basketball/events/401253307?lang=en&region=us"
        },
        {
            "$ref": "http://sports.core.api.espn.com/v2/sports/basketball/leagues/mens-college-basketball/events/401253118?lang=en&region=us"
        },
        {
            "$ref": "http://sports.core.api.espn.com/v2/sports/basketball/leagues/mens-college-basketball/events/401253005?lang=en&region=us"
        },
        {
            "$ref": "http://sports.core.api.espn.com/v2/sports/basketball/leagues/mens-college-basketball/events/401253009?lang=en&region=us"
        },
        {
            "$ref": "http://sports.core.api.espn.com/v2/sports/basketball/leagues/mens-college-basketball/events/401253014?lang=en&region=us"
        },
        {
            "$ref": "http://sports.core.api.espn.com/v2/sports/basketball/leagues/mens-college-basketball/events/401253022?lang=en&region=us"
        },
        {
            "$ref": "http://sports.core.api.espn.com/v2/sports/basketball/leagues/mens-college-basketball/events/401253025?lang=en&region=us"
        },
        {
            "$ref": "http://sports.core.api.espn.com/v2/sports/basketball/leagues/mens-college-basketball/events/401253031?lang=en&region=us"
        },
        {
            "$ref": "http://sports.core.api.espn.com/v2/sports/basketball/leagues/mens-college-basketball/events/401253037?lang=en&region=us"
        },
        {
            "$ref": "http://sports.core.api.espn.com/v2/sports/basketball/leagues/mens-college-basketball/events/401280133?lang=en&region=us"
        },
        {
            "$ref": "http://sports.core.api.espn.com/v2/sports/basketball/leagues/mens-college-basketball/events/401253046?lang=en&region=us"
        },
        {
            "$ref": "http://sports.core.api.espn.com/v2/sports/basketball/leagues/mens-college-basketball/events/401253049?lang=en&region=us"
        },
        {
            "$ref": "http://sports.core.api.espn.com/v2/sports/basketball/leagues/mens-college-basketball/events/401253054?lang=en&region=us"
        },
        {
            "$ref": "http://sports.core.api.espn.com/v2/sports/basketball/leagues/mens-college-basketball/events/401253063?lang=en&region=us"
        },
        {
            "$ref": "http://sports.core.api.espn.com/v2/sports/basketball/leagues/mens-college-basketball/events/401253070?lang=en&region=us"
        },
        {
            "$ref": "http://sports.core.api.espn.com/v2/sports/basketball/leagues/mens-college-basketball/events/401254032?lang=en&region=us"
        },
        {
            "$ref": "http://sports.core.api.espn.com/v2/sports/basketball/leagues/mens-college-basketball/events/401253082?lang=en&region=us"
        },
        {
            "$ref": "http://sports.core.api.espn.com/v2/sports/basketball/leagues/mens-college-basketball/events/401253085?lang=en&region=us"
        },
        {
            "$ref": "http://sports.core.api.espn.com/v2/sports/basketball/leagues/mens-college-basketball/events/401299661?lang=en&region=us"
        },
        {
            "$ref": "http://sports.core.api.espn.com/v2/sports/basketball/leagues/mens-college-basketball/events/401299662?lang=en&region=us"
        }
    ]
}